%YAML 1.1
%TAG !u! tag:unity3d.com,2011:
--- !u!114 &11400000
MonoBehaviour:
  m_ObjectHideFlags: 0
  m_CorrespondingSourceObject: {fileID: 0}
  m_PrefabInstance: {fileID: 0}
  m_PrefabAsset: {fileID: 0}
  m_GameObject: {fileID: 0}
  m_Enabled: 1
  m_EditorHideFlags: 0
  m_Script: {fileID: 11500000, guid: 56b95d88f181d264b8ff464a03eb3f25, type: 3}
  m_Name: Garganacl
  m_EditorClassIdentifier: 
  atk: 20
  cooldown: 3
  sprite: {fileID: 21300000, guid: 6762c24bef0e05442882c3d581c4bc49, type: 3}
  area: 4
  scalebala: 0.7
  colorbala: {r: 0.3962264, g: 0.30496076, b: 0, a: 1}
  velbala: 8
