%YAML 1.1
%TAG !u! tag:unity3d.com,2011:
--- !u!114 &11400000
MonoBehaviour:
  m_ObjectHideFlags: 0
  m_CorrespondingSourceObject: {fileID: 0}
  m_PrefabInstance: {fileID: 0}
  m_PrefabAsset: {fileID: 0}
  m_GameObject: {fileID: 0}
  m_Enabled: 1
  m_EditorHideFlags: 0
  m_Script: {fileID: 11500000, guid: ca3f02d989c29cc488d597e84f268837, type: 3}
  m_Name: Ene6
  m_EditorClassIdentifier: 
  atk: 10
  hp: 20
  vel: 2
  sprite:
  - {fileID: 21300000, guid: 747b7358546a8824e9805539d48b4b03, type: 3}
  - {fileID: 21300000, guid: 87f7d4ff62b8ff9439217824833d0723, type: 3}
  - {fileID: 21300000, guid: b205dedd64906694c9c8fa6fb534c4d4, type: 3}
  scale: 1.75
  money: 15
